<?xml version="1.0" encoding="iso-8859-1"?>
<!-- Generator: Adobe Illustrator 19.0.0, SVG Export Plug-In . SVG Version: 6.00 Build 0)  -->
<svg xmlns="http://www.w3.org/2000/svg" xmlns:xlink="http://www.w3.org/1999/xlink" version="1.1" id="Layer_1" x="0px" y="0px" viewBox="0 0 512 512" style="enable-background:new 0 0 512 512;" xml:space="preserve" width="512" height="512">
<g>
	<path d="M256,149.195c-21.348,0-40.755,10.832-51.913,28.975c-10.962,17.823-11.998,39.562-2.823,58.311L256,319.803l54.736-83.321   c9.175-18.749,8.139-40.488-2.823-58.311C296.755,160.027,277.348,149.195,256,149.195z M256,238.748   c-16.394,0-29.684-13.256-29.684-29.608c0-16.352,13.29-29.608,29.684-29.608s29.684,13.256,29.684,29.608   C285.684,225.493,272.394,238.748,256,238.748z"/>
	<path d="M505.43,34.616c-4.109-2.792-9.336-3.369-13.954-1.538l-101.89,40.365L129.47,32.209c-2.554-0.405-5.172-0.143-7.597,0.763   L9.752,74.849C3.888,77.039,0,82.641,0,88.901v376.076c0,4.916,2.409,9.521,6.448,12.323c2.546,1.768,5.536,2.677,8.553,2.677   c1.769,0,3.546-0.313,5.247-0.948l108.424-40.497l260.272,41.261c2.657,0.42,5.374,0.12,7.873-0.87l105.707-41.878   c5.72-2.266,9.476-7.794,9.476-13.945V47.024C512,42.055,509.54,37.409,505.43,34.616z M127.121,228.341c-8.284,0-15-6.716-15-15   v-20.875c0-8.284,6.716-15,15-15s15,6.716,15,15v20.875C142.121,221.625,135.405,228.341,127.121,228.341z M142.121,260.187v20.875   c0,8.284-6.716,15-15,15s-15-6.716-15-15v-20.875c0-8.284,6.716-15,15-15S142.121,251.902,142.121,260.187z M127.121,160.62   c-8.284,0-15-6.716-15-15v-20.875c0-8.284,6.716-15,15-15s15,6.716,15,15v20.875C142.121,153.904,135.405,160.62,127.121,160.62z    M112.121,327.907c0-8.284,6.716-15,15-15s15,6.716,15,15v20.875c0,8.284-6.716,15-15,15s-15-6.716-15-15V327.907z    M337.151,250.736c-0.255,0.505-0.539,0.996-0.85,1.469l-67.765,103.154c-2.773,4.223-7.485,6.765-12.537,6.765   s-9.764-2.542-12.537-6.765l-67.765-103.154c-0.311-0.473-0.595-0.964-0.85-1.469c-14.297-28.283-12.919-61.285,3.685-88.281   c16.658-27.088,45.618-43.259,77.467-43.259s60.809,16.171,77.467,43.259C350.07,189.451,351.448,222.453,337.151,250.736z    M391.293,268.517c-8.284,0-15-6.716-15-15v-20.875c0-8.284,6.716-15,15-15s15,6.716,15,15v20.875   C406.293,261.801,399.577,268.517,391.293,268.517z M406.293,300.361v20.876c0,8.284-6.716,15-15,15s-15-6.716-15-15v-20.876   c0-8.284,6.716-15,15-15S406.293,292.077,406.293,300.361z M391.293,200.796c-8.284,0-15-6.716-15-15V164.92   c0-8.284,6.716-15,15-15s15,6.716,15,15v20.876C406.293,194.08,399.577,200.796,391.293,200.796z M376.293,368.083   c0-8.284,6.716-15,15-15s15,6.716,15,15v20.875c0,8.284-6.716,15-15,15s-15-6.716-15-15V368.083z M391.293,82.199   c8.284,0,15,6.716,15,15v20.875c0,8.284-6.716,15-15,15s-15-6.716-15-15V97.199C376.293,88.915,383.009,82.199,391.293,82.199z    M127.121,42.024c8.284,0,15,6.716,15,15v20.875c0,8.284-6.716,15-15,15s-15-6.716-15-15V57.024   C112.121,48.739,118.837,42.024,127.121,42.024z M127.121,431.503c-8.284,0-15-6.716-15-15v-20.875c0-8.284,6.716-15,15-15   s15,6.716,15,15v20.875C142.121,424.787,135.405,431.503,127.121,431.503z M391.293,471.679c-8.284,0-15-6.716-15-15v-20.875   c0-8.284,6.716-15,15-15s15,6.716,15,15v20.875C406.293,464.963,399.577,471.679,391.293,471.679z"/>
</g>















</svg>
